<?xml version="1.0" encoding="utf-8"?>
<!-- Generator: Adobe Illustrator 16.0.0, SVG Export Plug-In . SVG Version: 6.00 Build 0)  -->
<!DOCTYPE svg PUBLIC "-//W3C//DTD SVG 1.1//EN" "http://www.w3.org/Graphics/SVG/1.1/DTD/svg11.dtd">
<svg version="1.1" id="Layer_1" xmlns="http://www.w3.org/2000/svg" xmlns:xlink="http://www.w3.org/1999/xlink" x="0px" y="0px"
	 width="32px" height="32px" viewBox="0 0 32 32" enable-background="new 0 0 32 32" xml:space="preserve">
<g>
	<path fill="#273F5B" d="M30.872,0h-7.439h-7.435H8.566H1.128C0.503,0,0,0.562,0,1.252v7.779v21.715C0,31.439,0.503,32,1.128,32
		h29.744C31.492,32,32,31.439,32,30.746V1.252C32,0.562,31.492,0,30.872,0z M29.744,7.779h-5.184V2.505h5.184V7.779z M22.309,2.505
		v5.273h-5.183V2.505H22.309z M9.69,7.779V2.505h5.184v5.273H9.69z M2.252,29.492V9.031V2.505h5.187v6.525
		c0,0.692,0.5,1.251,1.128,1.251h7.432h7.435h6.312v19.21H2.252L2.252,29.492z"/>
</g>
</svg>
