<?xml version="1.0" encoding="utf-8"?>
<!-- Generator: Adobe Illustrator 16.0.0, SVG Export Plug-In . SVG Version: 6.00 Build 0)  -->
<!DOCTYPE svg PUBLIC "-//W3C//DTD SVG 1.1//EN" "http://www.w3.org/Graphics/SVG/1.1/DTD/svg11.dtd">
<svg version="1.1" id="Warstwa_1" xmlns="http://www.w3.org/2000/svg" xmlns:xlink="http://www.w3.org/1999/xlink" x="0px" y="0px"
	 width="656.5px" height="126.474px" viewBox="0 0 656.5 126.474" enable-background="new 0 0 656.5 126.474" xml:space="preserve">
<g>
	<path fill="#ED1C24" d="M22.321,96.956V29.417h14.48v54.881h28.555v12.657H22.321z"/>
	<path fill="#ED1C24" d="M75.074,96.956V29.417h47.793v12.657H89.452V56.25h32.706v12.657H89.452v15.391h33.415v12.657H75.074z"/>
	<path fill="#ED1C24" d="M131.672,96.956V85.311l31.896-43.237h-31.896V29.417h50.73V40.96l-31.896,43.338h32.604v12.657H131.672z"
		/>
	<path fill="#ED1C24" d="M191.612,96.956V85.311l31.896-43.237h-31.896V29.417h50.73V40.96l-31.896,43.338h32.604v12.657H191.612z"
		/>
	<path fill="#ED1C24" d="M253.982,96.956V29.417h47.793v12.657h-33.414V56.25h32.706v12.657h-32.706v15.391h33.414v12.657H253.982z"
		/>
	<path fill="#ED1C24" d="M328.604,96.956V42.074h-19.745V29.417h53.869v12.657h-19.644v54.881H328.604z"/>
	<path d="M396.642,63.237c0-20.758,15.29-34.934,34.731-34.934c11.948,0,20.251,5.67,25.618,13.366l-6.987,3.949
		c-3.848-5.772-10.936-9.822-18.631-9.822c-14.783,0-26.023,11.239-26.023,27.44c0,15.999,11.24,27.441,26.023,27.441
		c7.695,0,14.783-4.152,18.631-9.822l7.088,3.848c-5.67,7.797-13.771,13.467-25.719,13.467
		C411.932,98.17,396.642,83.995,396.642,63.237z"/>
	<path d="M515.717,96.956l-5.975-15.087h-33.617l-5.975,15.087h-9.619l27.238-67.539h10.43l27.137,67.539H515.717z M492.934,38.024
		l-14.277,36.453h28.656L492.934,38.024z"/>
	<path d="M534.141,96.956V29.417h44.249v7.493h-35.845v21.77h35.136v7.493h-35.136v30.782H534.141z"/>
	<path d="M589.93,96.956V29.417h44.249v7.493h-35.845v21.77h35.136v7.493h-35.136v23.289h35.845v7.493H589.93z"/>
</g>
</svg>
